382527657,50260166,0.9602422987793077,1.0,0.0,47
1155993912726568961,1112702080152535045,0.9602422987793077,1.0,0.0,47
780212810,590957489,0.9602422987793077,1.0,0.0,47
2414088876,51064786,0.9602422987793077,1.0,0.0,47
219790153,350872635,0.9602422987793077,1.0,0.0,47
1120898476122894338,1046036144616398850,0.9510748097431118,0.983050847457627,0.016661878770468257,59
711000470,1557192296,0.9602422987793077,1.0,0.0,47
377592334,20022678,0.9602422987793077,1.0,0.0,47
1138111644356218882,1065917930871898114,0.9602422987793077,1.0,0.0,47
984507294,95837627,0.9449147135905984,0.9838709677419354,0.01586888657648283,62
147621395,1290352735,0.9602422987793077,1.0,0.0,47
3302156888,555665007,0.9602422987793077,1.0,0.0,47
1144602089143730176,806124855485575168,0.9602422987793077,1.0,0.0,47
1110380546792845312,1157442919235649537,0.9322236217186198,0.9705882352941175,0.028546712802768163,68
1196982395120939008,1127975796725952514,0.9602422987793077,1.0,0.0,47
826298918451499009,1443084667,0.9602422987793077,1.0,0.0,47
178964584,2901654558,0.9602422987793077,1.0,0.0,47
286431707,2276461717,0.9602422987793077,1.0,0.0,47
842123960070287360,1116103880872464385,0.9602422987793077,1.0,0.0,47
2524257152,1050050154,0.9602422987793077,1.0,0.0,47
31253693,39489722,0.9602422987793077,1.0,0.0,47
2284289260,2455381799,0.9602422987793077,1.0,0.0,47
877861193888694273,316291124,0.9602422987793077,1.0,0.0,47
118210806,151518503,0.9602422987793077,1.0,0.0,47
467844940,22483236,0.9449147135905984,0.9838709677419354,0.01586888657648283,62
930582829,377872472,0.9602422987793077,1.0,0.0,47
1030955810938077187,1607875628,0.9602422987793077,1.0,0.0,47
30491611,2918783268,0.9602422987793077,1.0,0.0,47
1278562394,323357637,0.9602422987793077,1.0,0.0,47
807184581883469825,828321145082564609,0.9602422987793077,1.0,0.0,47
485119112,729730342735745025,0.9602422987793077,1.0,0.0,47
202315229,80419790,0.9602422987793077,1.0,0.0,47
1587228211,1514983332,0.9602422987793077,1.0,0.0,47
841253764174622721,748121217740177408,0.9602422987793077,1.0,0.0,47
2497310258,250242354,0.9602422987793077,1.0,0.0,47
1319257009,1060605501690560512,0.9602422987793077,1.0,0.0,47
870961480853737476,124145508,0.9602422987793077,1.0,0.0,47
132047384,994386174,0.9602422987793077,1.0,0.0,47
1422957265,969582079162937346,0.9602422987793077,1.0,0.0,47
253798670,129005200,0.9602422987793077,1.0,0.0,47
4516232117,4201211356,0.9602422987793077,1.0,0.0,47
426892613,1570072602,0.9602422987793077,1.0,0.0,47
64664449,6453512,0.9602422987793077,1.0,0.0,47
1009909173717434369,945393219084353539,0.9602422987793077,1.0,0.0,47
2149790846,720897877942272000,0.9602422987793077,1.0,0.0,47
937889791244361728,911575362856816640,0.9602422987793077,1.0,0.0,47
957113692427964416,2611438058,0.9602422987793077,1.0,0.0,47
4200220018,3134591453,0.9602422987793077,1.0,0.0,47
4694077699,1631775823,0.9602422987793077,1.0,0.0,47
1059521404352323585,749603176110776320,0.9602422987793077,1.0,0.0,47
962410116,1120258623693832192,0.9602422987793077,1.0,0.0,47
2393205541,562497041,0.9602422987793077,1.0,0.0,47
2990236878,325760401,0.9602422987793077,1.0,0.0,47
999546277699305474,2834607602,0.9602422987793077,1.0,0.0,47
1682258875,146067296,0.9602422987793077,1.0,0.0,47
1343905730,2439917427,0.9602422987793077,1.0,0.0,47
4730496620,4568415261,0.9602422987793077,1.0,0.0,47
757966873434558464,796806193192849409,0.9322236217186198,0.9705882352941175,0.028546712802768163,68
26022258,354437511,0.9602422987793077,1.0,0.0,47
709346638,1459872666,0.9602422987793077,1.0,0.0,47
871817922,851491291,0.9602422987793077,1.0,0.0,47
316551309,171853151,0.9449147135905984,0.9838709677419354,0.01586888657648283,62
462780501,1138894704748089344,0.9602422987793077,1.0,0.0,47
744754032439234560,741110566354182144,0.9602422987793077,1.0,0.0,47
4908864695,520199471,0.9602422987793077,1.0,0.0,47
1146686263593803776,1155693902147411968,0.9602422987793077,1.0,0.0,47
34167902,41527039,0.9602422987793077,1.0,0.0,47
852125450503630849,3104577866,0.9449147135905984,0.9838709677419354,0.01586888657648283,62
915694653374156800,725290315,0.9602422987793077,1.0,0.0,47
1139215262064861184,1193181857363292160,0.9602422987793077,1.0,0.0,47
238635148,335079191,0.9602422987793077,1.0,0.0,47
776383204462768128,805017143481745408,0.9602422987793077,1.0,0.0,47
3357937574,3480000437,0.9602422987793077,1.0,0.0,47
1177887340246618114,1170980299502522368,0.9602422987793077,1.0,0.0,47
227410379,88933639,0.9602422987793077,1.0,0.0,47
1038388313575616512,1238869920,0.9602422987793077,1.0,0.0,47
725381389,775492464,0.9602422987793077,1.0,0.0,47
1003371491243712512,916725294202986496,0.9602422987793077,1.0,0.0,47
998384002091253762,1148644286428327937,0.9602422987793077,1.0,0.0,47
1039495772356501504,3080266182,0.9602422987793077,1.0,0.0,47
113594751,290533811,0.9602422987793077,1.0,0.0,47
900997968,2510692563,0.9602422987793077,1.0,0.0,47
282972164,282980998,0.9418159153264787,0.9682539682539683,0.03073822121441169,63
1214179305367851008,1161257045309308928,0.9602422987793077,1.0,0.0,47
942215852,1093025504,0.9602422987793077,1.0,0.0,47
2473890085,2859489586,0.9602422987793077,1.0,0.0,47
113594751,290533811,0.9602422987793077,1.0,0.0,47
1012911118006693888,871536799859867648,0.9602422987793077,1.0,0.0,47
847384751325368324,725054511144919040,0.9602422987793077,1.0,0.0,47
711656895090528256,713111727471243264,0.9602422987793077,1.0,0.0,47
140060847,1193024540,0.9602422987793077,1.0,0.0,47
981815194019160064,981814836496609280,0.9602422987793077,1.0,0.0,47
2955545991,879167166947393537,0.9602422987793077,1.0,0.0,47
526746007,27390907,0.9449147135905984,0.9838709677419354,0.01586888657648283,62
543214845,1329116436,0.9602422987793077,1.0,0.0,47
874061319003140098,2186077545,0.9602422987793077,1.0,0.0,47
406175732,1176511934,0.9602422987793077,1.0,0.0,47
709998473156890625,707588215511883776,0.9602422987793077,1.0,0.0,47
1102510843281854469,759584037237166081,0.9602422987793077,1.0,0.0,47
1136924927112679424,977959432557596672,0.9602422987793077,1.0,0.0,47
3223433234,2354746927,0.9602422987793077,1.0,0.0,47
2576294830,47675081,0.9602422987793077,1.0,0.0,47
1699533618,1478012390,0.9602422987793077,1.0,0.0,47
1046169969548021760,1101058027162165248,0.9602422987793077,1.0,0.0,47
3228750746,1168522748,0.9322236217186202,0.9705882352941178,0.02854671280276817,68
1852926151,1021736699930468352,0.9602422987793077,1.0,0.0,47
1475485028,1699533618,0.9322236217186197,0.9705882352941174,0.028546712802768163,68
241276761,309055640,0.9602422987793077,1.0,0.0,47
1059810102520115202,1186222515523186688,0.9602422987793077,1.0,0.0,47
1034773422268669952,829621501,0.9602422987793077,1.0,0.0,47
3892794592,580461536,0.9602422987793077,1.0,0.0,47
833877799828066304,771719646256959515,0.9602422987793077,1.0,0.0,47
3332539415,3598073968,0.9602422987793077,1.0,0.0,47
840088767092346883,703674679953854464,0.9602422987793077,1.0,0.0,47
375084680,235689798,0.9602422987793077,1.0,0.0,47
902507434924810241,38358865,0.9602422987793077,1.0,0.0,47
86131028,249803646,0.9602422987793077,1.0,0.0,47
150502809,26583676,0.9602422987793077,1.0,0.0,47
1073268324874760193,1141599518712107009,0.9602422987793077,1.0,0.0,47
4824487667,700655762066911233,0.9322236217186202,0.9705882352941178,0.02854671280276817,68
375565765,584218133,0.9602422987793077,1.0,0.0,47
4661817135,767182916434681857,0.9602422987793077,1.0,0.0,47
3325665677,1927367054,0.9602422987793077,1.0,0.0,47
2890759635,22689124,0.9449147135905984,0.9838709677419354,0.01586888657648283,62
